<svg xmlns="http://www.w3.org/2000/svg" width="181.11" height="461.24" viewBox="0 0 181.11 461.24">
  <path id="_006-dna" data-name="006-dna" d="M165.445,478.62a8,8,0,0,0,16,0A85.632,85.632,0,0,1,192.77,435H319.23a85.632,85.632,0,0,1,11.325,43.62,8,8,0,0,0,16,0c0-55.29-37.271-84.682-76.285-111.312,39.014-26.631,76.285-56.023,76.285-111.313s-37.271-84.678-76.284-111.308c39.013-26.629,76.284-56.02,76.284-111.307a8,8,0,1,0-16,0A86.671,86.671,0,0,1,323.279,69H188.721a86.671,86.671,0,0,1-7.276-35.62,8,8,0,0,0-16,0c0,55.287,37.271,84.678,76.284,111.307-39.013,26.63-76.284,56.02-76.284,111.308s37.271,84.682,76.285,111.313C202.716,393.938,165.445,423.33,165.445,478.62ZM197.891,85H314.109c-14.047,19.66-35.518,34.767-58.109,50.036C233.409,119.767,211.938,104.66,197.891,85ZM256,154.339c24.328,16.442,47.342,32.706,61.2,54.661H194.8C208.658,187.045,231.672,170.781,256,154.339ZM186.829,225H325.171a91.625,91.625,0,0,1-.786,64H187.615a91.625,91.625,0,0,1-.786-64Zm9.262,80H315.909c-13.971,20.95-36.326,36.717-59.909,52.656C232.417,341.717,210.062,325.95,196.091,305ZM256,376.959c19.428,13.132,38.015,26.151,51.777,42.041H204.223C217.985,403.11,236.572,390.091,256,376.959Z" transform="translate(-165.445 -25.38)" fill="#4d4f5c"/>
</svg>
